<svg width="21" height="19" viewBox="0 0 21 19" fill="none" xmlns="http://www.w3.org/2000/svg">
<path d="M12.2246 4.056H4.73659V7.368C5.05659 7.016 5.50459 6.728 6.08059 6.504C6.65659 6.28 7.28059 6.168 7.95259 6.168C9.15259 6.168 10.1446 6.44 10.9286 6.984C11.7286 7.528 12.3126 8.232 12.6806 9.096C13.0486 9.96 13.2326 10.896 13.2326 11.904C13.2326 13.776 12.7046 15.264 11.6486 16.368C10.5926 17.456 9.10459 18 7.18459 18C5.90459 18 4.79259 17.784 3.84859 17.352C2.90459 16.904 2.17659 16.288 1.66459 15.504C1.15259 14.72 0.872594 13.816 0.824594 12.792H4.83259C4.92859 13.288 5.16059 13.704 5.52859 14.04C5.89659 14.36 6.40059 14.52 7.04059 14.52C7.79259 14.52 8.35259 14.28 8.72059 13.8C9.08859 13.32 9.27259 12.68 9.27259 11.88C9.27259 11.096 9.08059 10.496 8.69659 10.08C8.31259 9.664 7.75259 9.456 7.01659 9.456C6.47259 9.456 6.02459 9.592 5.67259 9.864C5.32059 10.12 5.08859 10.464 4.97659 10.896H1.01659V0.456H12.2246V4.056ZM17.826 18.192C17.106 18.192 16.514 17.984 16.05 17.568C15.602 17.136 15.378 16.608 15.378 15.984C15.378 15.344 15.602 14.808 16.05 14.376C16.514 13.944 17.106 13.728 17.826 13.728C18.53 13.728 19.106 13.944 19.554 14.376C20.018 14.808 20.25 15.344 20.25 15.984C20.25 16.608 20.018 17.136 19.554 17.568C19.106 17.984 18.53 18.192 17.826 18.192Z" fill="black" fill-opacity="0.24"/>
</svg>
